<?xml version="1.0" encoding="utf-8"?>
<!-- Generator: Adobe Illustrator 22.0.0, SVG Export Plug-In . SVG Version: 6.00 Build 0)  -->
<svg version="1.1" id="Layer_1" xmlns="http://www.w3.org/2000/svg" xmlns:xlink="http://www.w3.org/1999/xlink" x="0px" y="0px"
	 viewBox="0 0 1195 785" style="enable-background:new 0 0 1195 785;" xml:space="preserve">
<path d="M251.3,176.1c-6.7,12.7-13,24.9-19.4,37c-24.3,46-48.6,92-72.8,138.1c-1.4,2.7-2.9,3.8-6,3.7c-8.9-0.2-17.8-0.2-26.7,0
	c-2.3,0-3.2-0.8-3.6-2.9c-6.5-29.5-13-58.9-19.5-88.4C97.4,237,91.6,210.4,85.6,184c-0.6-2.8-0.1-3.8,2.7-4.2
	c10.4-1.6,20.7-3.3,31-5.1c2.2-0.4,2.9,0.1,3.4,2.4c8.3,43.2,16.7,86.4,25,129.6c0.2,0.9,0.4,1.8,0.7,2.8c1.2-0.6,1.3-1.8,1.8-2.7
	c21.3-42.5,42.6-85,63.8-127.5c1.2-2.3,2.4-3,5-3C229.6,176.2,240.2,176.1,251.3,176.1L251.3,176.1z M782,317.5
	c3,7.2,8.6,11,16.3,11.1c10.3,0.2,18.2-4.9,25.6-11.2c3.9-3.3,7-6.8,6.8-12.4c-0.1-1.8,0.6-3.6,0.8-5.4c2-12.9,3.9-25.7,5.9-38.6
	c0.2-1.5,0.5-2.8-1.4-3.6c-8.1-3.7-16.5-5.2-25.3-4c-11.4,1.6-18.7,8.8-23.7,18.6c-5,9.7-7,20.2-7.4,30.4
	C779.7,307.9,780.1,312.8,782,317.5L782,317.5z M827.6,336.9c-7.6,7.6-15.5,13.8-25.3,16.8c-14.8,4.6-29.2,4.3-41.6-6.5
	c-8.1-7.1-11.6-16.7-12.3-27c-1.8-24.1,2.5-47,17-66.9c14.2-19.5,33.8-27.3,57.7-24.8c5.6,0.6,11.2,1.5,16.5,3.4
	c2.2,0.8,2.5-0.1,2.8-1.9c2.7-18.2,5.6-36.4,8.3-54.6c0.2-1.6,0.6-2.6,2.6-2.9c9.3-1.4,18.7-2.9,28-4.4c2.1-0.3,1.6,0.8,1.4,2
	c-2.3,14.7-4.5,29.4-6.8,44.1c-4,26.3-8.1,52.6-12.1,78.9c-3,19.6-6,39.1-9,58.7c-0.2,1.6-0.8,2.2-2.4,2.2c-7.5-0.1-15-0.1-22.5,0
	c-2,0-2.2-0.9-2.2-2.5C827.7,346.7,827.6,342.1,827.6,336.9L827.6,336.9z M255.6,278c15.5,0.1,31.1,0.1,46.6,0.2
	c1.6,0,1.9-0.7,1.9-2.1c0.1-4-0.1-8.1-1-12c-1.7-7.4-5.4-13.2-13.3-15.2c-6.9-1.7-13.3-0.4-19.1,3.7c-8.7,6.2-12.9,15.2-15.7,25.1
	C255.4,277.9,255.5,278,255.6,278L255.6,278z M291.1,297.7c-12.2,0-24.5,0.1-36.7-0.1c-2.4,0-3.2,0.7-3.3,3
	c-0.1,8.6,0.5,16.9,6.7,23.6c6.7,7.2,15.4,8.2,24.5,7.9c14.2-0.6,26.8-6.1,38.8-13.3c0.9-0.6,1.9-1.9,3-1.3c1.1,0.6,0.5,2.1,0.5,3.2
	c0.1,6,0,12,0.1,18c0,1.5-0.3,2.6-1.7,3.4c-21.1,12.5-43.7,17.4-67.7,12.2c-20.8-4.4-33-18.9-34.6-41.1c-1.6-22,3.1-42.8,16.8-60.7
	c16-20.9,37.3-29.4,63.4-24.7c17.2,3.1,28.6,15.5,31.9,33.1c2.1,11.4,1.3,22.7-0.8,34c-0.4,2.2-1.6,2.6-3.6,2.6
	C315.8,297.7,303.5,297.7,291.1,297.7L291.1,297.7z M706.5,278.3c2.3,0.1,2.9-0.7,2.8-2.9c0-3.3-0.3-6.7-0.8-10
	c-1.4-8.8-6.4-14.7-13.7-16.4c-6.6-1.5-12.9-0.4-18.5,3.4c-8.6,5.8-12.8,14.5-15.8,24c-0.7,2.4,0.9,1.8,2,1.8c7.4,0,14.8,0,22.1,0
	C692,278.2,699.3,278.1,706.5,278.3L706.5,278.3z M696.6,297.7c-12.3,0-24.7,0.1-37-0.1c-2.4,0-3.2,0.8-3.2,3.1
	c0.1,3.5-0.1,6.9,0.5,10.4c2.6,13.7,11.5,20.8,26.6,21.1c14,0.3,26.7-4.2,38.7-11c1.9-1.1,3.8-2.1,5.7-3.3c1.6-1,2-0.4,2,1.2
	c-0.1,6.9-0.2,13.8-0.3,20.8c0,1-0.4,1.7-1.3,2.2c-22.9,13.4-47.2,18.6-73,10.9c-16.7-5-26.5-17.2-28.8-34.2
	c-3.5-25.9,1.9-50,19.4-70.1c16.1-18.6,37-25.4,61.1-20.4c17.2,3.6,26.8,15.2,30.5,32c2.6,11.8,1.6,23.6-0.7,35.4
	c-0.4,2-1.5,2.1-3.2,2.1C721.3,297.7,708.9,297.7,696.6,297.7L696.6,297.7z M521.3,353.9c3.6,0.3,4.6-1.1,5.1-4.4
	c4.6-30.6,9.3-61.3,13.9-91.9c0.4-2.4,1.4-2.9,3.6-2.9c6.9,0.1,13.8-0.1,20.8,0.1c2.8,0.1,3.8-0.6,3.7-3.6c-0.2-6.6,0-13.1,0.1-19.7
	c0.1-2-0.8-2.3-2.4-2.3c-6.2,0.1-12.5,0-18.7,0.1c-2,0-2.7-0.5-2.4-2.5c1-6,1.7-12.1,3-18.1c1.5-7.2,6-11.6,13.6-12.9
	c5-0.8,9.9-0.1,14.8,0.4c2,0.2,2.6-0.4,2.5-2.4c-0.2-6.5-0.3-12.9-0.1-19.4c0.1-2.9-1.1-3.7-3.7-3.9c-6.1-0.5-12.2-0.5-18.3,0
	c-20.7,1.7-34.5,13.5-38.9,33.7c-1.6,7.3-2.5,14.8-3.6,22.2c-0.3,2.2-1.1,3.1-3.5,2.9c-4.3-0.2-8.5,0-12.8-0.1c-1.5,0-2.3,0.3-2.6,2
	c-1,7.2-2.1,14.4-3.2,21.5c-0.3,2,0.7,2,2.1,2c4.4,0,8.8,0.1,13.1,0c1.9,0,2.4,0.6,2.1,2.4c-3.1,19.9-6.2,39.8-9.3,59.7
	c-1.7,11.3-3.4,22.5-5.3,33.8c-0.5,2.8,0.4,3.3,2.9,3.2c4-0.2,8.1-0.1,12.1-0.1C514,353.8,517.7,353.5,521.3,353.9L521.3,353.9z
	 M980.1,291.9c-1.2-9.3-6.9-14.3-16-13.3c-8.4,0.9-14.4,6.2-20.2,11.8c-0.3,0.3-0.4,1-0.5,1.6c-2,13.1-4,26.2-6.1,39.3
	c-0.2,1.4,0.2,2.2,1.5,2.5c12.9,3.9,29.8,3.2,37.2-14.8c2.8-6.8,4.1-13.9,4.4-21.8C980.4,295.8,980.3,293.9,980.1,291.9L980.1,291.9
	z M946.9,269.7c5.8-4.8,11.4-8.6,18.1-10.5c16.9-4.9,35.9,0.7,39.1,23.7c2.6,19-1.1,37-12.7,52.7c-8.9,12.1-21.4,18-36.1,19.1
	c-13.8,1.1-27.3-0.6-40.6-4.7c-2.8-0.9-3.5-2-3.1-4.8c3-18.4,5.7-36.9,8.6-55.3c3.6-23.5,7.3-46.9,10.8-70.3
	c0.3-2.1,0.8-3.2,3.2-3.5c6.1-0.7,12.1-1.5,18.1-2.8c3.5-0.7,3.3,0.8,2.9,3.1c-1.5,9.4-2.9,18.9-4.4,28.3
	C949.5,252.8,948.3,260.9,946.9,269.7L946.9,269.7z M386.7,232.6c0.1-2.9-0.9-3.4-3.5-3.3c-6.1,0.2-12.2,0.1-18.3,0.1
	c-4.8,0-4.7,0-5.4,4.7c-3.8,24.8-7.6,49.6-11.4,74.5c-2.1,14-4.3,28-6.5,42c-0.5,2.8,0.4,3.5,3.1,3.5c8.3-0.2,16.6-0.1,24.9,0
	c2,0,2.8-0.5,3.1-2.6c3-20,6-40.1,9.2-60.1c0.5-3.4,0-7.2,2.6-10.2c11.8-13.2,26.3-21.1,43.9-23.1c2.2-0.2,2.6-1,2.6-2.9
	c-0.1-8.5-0.2-17.1-0.1-25.6c0-2.2-0.5-2.8-2.7-2.5c-8.9,1.2-16.9,4.3-24.2,9.5c-6.5,4.7-11.8,10.5-17.3,17.6
	C386.7,246.2,386.5,239.4,386.7,232.6L386.7,232.6z M1055.1,322.8c-3.5-20.5-7.1-41.1-10.5-61.6c-0.4-2.2-0.8-3.2-3.4-2.8
	c-6.5,1-13,1.7-19.5,2.4c-2.2,0.2-2.6,0.9-2.1,3.3c6.3,28.8,12.4,57.6,18.5,86.4c0.3,1.6,0.9,3.1,0.2,4.7c-4,9.3-9.5,15.9-22.2,14.8
	c-1.8-0.2-3.7-0.3-5.5-0.7c-1.8-0.4-2.5-0.1-2.4,1.9c0.2,4.9,0.3,9.9,0.3,14.9c0,1.9,0.6,2.6,2.5,2.8c11.4,1.4,22.1-0.2,31.3-7.5
	c6.7-5.4,11.4-12.3,15.3-19.8c6.9-13.1,13.6-26.4,20.4-39.6c10.3-20,20.5-39.9,30.8-59.9c1.1-2.2,0.7-2.7-1.7-2.6
	c-5.7,0.1-11.3,0.2-17,0c-2.7-0.1-4.1,0.7-5.2,3.2c-6,13-12.1,25.8-18.2,38.7c-3.5,7.5-7.1,14.9-10.8,22.8
	C1055.3,323.2,1055.1,323,1055.1,322.8L1055.1,322.8z M458.8,353.8c1.9,0.1,2.8-0.4,3.2-2.6c6-39.6,12-79.3,18.2-118.9
	c0.5-3-0.4-3.2-2.8-3.1c-7.8,0.1-15.7,0.2-23.5-0.1c-3.5-0.1-4.6,0.9-5.1,4.4c-3.9,26.5-8,52.9-12.1,79.3
	c-1.9,12.5-3.8,25.1-5.8,37.6c-0.5,2.8,0.2,3.6,3.1,3.4c4-0.2,8.1-0.1,12.1-0.1C450.3,353.8,454.6,353.7,458.8,353.8L458.8,353.8z
	 M595,353.8c1.9,0,2.6-0.6,2.8-2.5c1-7.2,2.2-14.3,3.3-21.5c5-32.6,10-65.1,15.1-97.7c0.4-2.4-0.2-2.9-2.5-2.9
	c-7.7,0.1-15.5,0.1-23.2,0c-5.2,0-5.1,0-5.9,5.2c-3.8,25.1-7.7,50.1-11.6,75.2c-2.1,13.7-4.2,27.3-6.3,41c-0.4,2.3,0,3.4,2.7,3.2
	c4.3-0.2,8.5-0.1,12.8-0.1C586.5,353.8,590.7,353.8,595,353.8L595,353.8z M478.3,173.4c-11.4-2.4-22.9,5-25.4,16.4
	c-1.7,8.1,1.5,14.7,8.5,17.5c13,5.2,28.1-4.9,28.4-18.9C490,180.8,485.5,174.9,478.3,173.4L478.3,173.4z M623.7,197
	c5.3-10.2,0.6-21.5-9.6-23.6c-10.7-2.2-21.7,4.2-24.9,14.7c-3.5,11.3,3.3,20.5,16.9,20.6C612.9,208.3,619.7,204.7,623.7,197
	L623.7,197z M424.4,420.7c-2.5-13-12.3-17.1-23.7-17.1h-84.8l-0.6,4.1c58.2,14.9,106,46.5,127.5,106.3L424.4,420.7L424.4,420.7z
	 M448.1,542.2l-5.4-28.2c-11.1-29.4-38-56.6-68.4-69l42.7,161.4h55.4l82.6-202.8h-55.7L448.1,542.2L448.1,542.2z M595.9,606.7
	l32.9-203.1h-52.5l-32.9,203.1H595.9L595.9,606.7z M739.2,400.1c-51.9,0-88.2,27.5-88.6,67.1c-0.3,29.1,25.9,45.2,45.9,55.1
	c20.6,9.8,27.2,16.4,27.2,25.3c0,13.6-16.4,19.6-31.3,19.6c-21.2,0-32.6-2.5-49.3-10.4l-7-3.5l-7.3,45.5
	c12.3,5.7,34.8,10.8,58.5,10.8c55,0.3,90.8-27.2,91.4-69.3c0-23.1-14.2-40.5-44.3-55.1c-18.3-9.2-29.4-15.8-29.4-25.3
	c0-8.5,9.5-17.4,30-17.4c17.1-0.3,29.7,3.2,39.2,7.6l4.8,2.5l7.3-44C775.9,404.5,759.4,400.1,739.2,400.1L739.2,400.1z M880.3,403.6
	c-12.7,0-22.2,3.8-27.5,17.1l-77.8,186h55c8.9-25,11.1-30.4,11.1-30.4h67.1c0,0,1.6,7,6.3,30.4h48.7l-42.4-203.1L880.3,403.6
	L880.3,403.6z M855.9,534.6c0,0,4.4-11.7,20.9-56.6c-0.3,0.3,4.4-11.7,7-19.3l3.8,17.4c9.8,48.4,12,58.5,12,58.5
	C891.3,534.6,866.3,534.6,855.9,534.6L855.9,534.6z"/>
</svg>
