<?xml version="1.0" encoding="utf-8"?>
<!-- Generator: Adobe Illustrator 22.0.0, SVG Export Plug-In . SVG Version: 6.00 Build 0)  -->
<svg version="1.1" id="Layer_1" xmlns="http://www.w3.org/2000/svg" xmlns:xlink="http://www.w3.org/1999/xlink" x="0px" y="0px"
	 viewBox="0 0 319.7 274.1" style="enable-background:new 0 0 319.7 274.1;" xml:space="preserve">
<style type="text/css">
	.st0{fill:#FAFAFA;}
	.st1{fill:#FFFFFF;}
	.st2{font-family:'FontAwesome';}
	.st3{font-size:48px;}
	.st4{enable-background:new    ;}
	.st5{clip-path:url(#SVGID_2_);}
</style>
<g id="_xF0A1_">
	<g>
		<path class="st0" d="M174.3,191.3c0,1.9-1.5,3.4-3.4,3.4V205c0,1.9-1.6,3.4-3.4,3.4c-4.8-4-12.5-9.4-21.7-10.2
			c-3.2,1.1-4.3,4.8-2.2,6.9c-1.9,3.1,0.5,5.2,3.4,7.5c-1.7,3.3-8.6,3.3-11,1c-1.6-4.8-3.9-9.5-2-15.6h-3.3c-2.4,0-4.3-1.9-4.3-4.3
			v-5.1c0-2.4,1.9-4.3,4.3-4.3h12.9c10.3,0,18.9-6,24-10.3c1.9,0,3.4,1.6,3.4,3.4v10.3C172.8,187.9,174.3,189.4,174.3,191.3z
			 M167.4,178.5c-7,5.4-13.8,8.4-20.6,9.2v7.2c6.8,0.8,13.6,3.8,20.6,9.1V178.5z"/>
	</g>
</g>
<g id="_xF0F4_">
	<g>
		<path class="st1" d="M123.2,102c0,3.8-3.1,6.9-6.9,6.9H82c-3.8,0-6.9-3.1-6.9-6.9H123.2z M114.6,91.7h-1.7v0.9c0,3.3-2.7,6-6,6H88
			c-3.3,0-6-2.7-6-6V72.9c0-0.9,0.8-1.7,1.7-1.7h30.8c5.7,0,10.3,4.6,10.3,10.3S120.3,91.7,114.6,91.7z M114.6,76.3h-1.7v10.3h1.7
			c2.8,0,5.1-2.3,5.1-5.1S117.4,76.3,114.6,76.3z"/>
	</g>
</g>
<g id="_xF2B5_">
	<g>
		<path class="st0" d="M291.5,97.5c0,0.9-0.7,1.6-1.6,1.6h-10.7c-0.9,2.1-2.8,3.6-5.1,3.9c-1.1,1.5-2.7,2.7-4.5,3.1
			c-1.4,1.7-3.5,2.8-5.7,2.6c-4.1,2.3-8.6,0.3-11.6-2.7l-7-6.9h-8.8c-0.9,0-1.6-0.7-1.6-1.6V81c0-0.9,0.7-1.6,1.6-1.6h10.3
			c2.8-2.8,4.8-5.5,9.1-5.5h2.9c1.6,0,3.1,0.5,4.4,1.4c1.3-0.9,2.8-1.4,4.4-1.4h4.1c4.7,0,6.6,3,9.4,6.3h8.7c0.9,0,1.6,0.7,1.6,1.6
			v15.7H291.5z M239.6,92.8c-2.1,0-2.1,3.1,0,3.1S241.7,92.8,239.6,92.8z M269.8,87.1l-3.1,3.4c-2.7,3.1-7.5,3-10.2-0.1
			c-1.9-2.3-1.9-5.5,0-7.7l4.3-5.1c-1.5-0.8-3.4-0.5-5-0.5c-1.4,0-2.8,0.6-3.9,1.6l-3.9,3.9h-3.8V96c1.1,0,2.1-0.1,2.9,0.7l7.3,7.2
			c1.5,1.4,3.4,2.7,5.6,2.7c1.1,0,2.3-0.4,3.1-1.2c1.8,0.6,4-0.4,4.5-2.3c1.2,0.1,2.3-0.3,3.1-1.1c0.6-0.5,1.3-1.5,1.2-2.4
			c0.2,0.2,0.8,0.2,1.1,0.2c2.9,0,4.4-3.1,2.7-5.4C273.9,92,272,89.4,269.8,87.1z M282.1,95.9V83.4h-2.3l-3.9-4.4
			c-1-1.2-2.6-1.9-4.1-1.9h-4.1c-1.4,0-2.7,0.6-3.6,1.6l-5.1,6c-0.9,1.1-0.9,2.6,0,3.7c1.4,1.7,4,1.7,5.4,0.1l4.7-5.4
			c1.1-1.3,3.2-0.1,2.7,1.5c0.9,1.1,1.9,2.1,2.8,3.2c1.2,1.5,2.4,3.1,3.6,4.7c0.8,1,1.3,2.2,1.5,3.4L282.1,95.9L282.1,95.9z
			 M286.8,92.8c-2.1,0-2.1,3.1,0,3.1S288.8,92.8,286.8,92.8z"/>
	</g>
</g>
<g id="_x3C_Type_x3E__5_">
	<text transform="matrix(1 0 0 1 138.9001 118.5561)" class="st1 st2 st3"> </text>
</g>
<g id="_xF128_">
	<g>
		<path class="st0" d="M139.7,57.1c-1.6,0.9-2.6,2.8-2.6,3.5c0,0.6-0.5,1.3-1.1,1.3h-6.4c-0.6,0-1-0.9-1-1.5v-1.2
			c0-3.2,3.2-6,5.6-7.1c2.1-0.9,2.9-1.8,2.9-3.5c0-1.5-2-2.8-4.1-2.8c-1.2,0-2.3,0.4-2.9,0.8c-0.6,0.5-1.3,1.1-2.9,3.1
			c-0.2,0.3-0.5,0.4-0.8,0.4c-0.2,0-0.5-0.1-0.7-0.2l-4.4-3.3c-0.5-0.3-0.6-0.9-0.3-1.4c2.9-4.8,7-7.1,12.4-7.1
			c5.7,0,12.2,4.6,12.2,10.7C145.7,53.7,142.2,55.7,139.7,57.1z M137.2,71.1c0,0.6-0.5,1.1-1.1,1.1h-6.4c-0.6,0-1.1-0.5-1.1-1.1
			v-6.4c0-0.6,0.5-1.1,1.1-1.1h6.4c0.6,0,1.1,0.5,1.1,1.1V71.1z"/>
	</g>
</g>
<g id="_xF002_">
	<g>
		<path class="st1" d="M226.9,116c-0.8,0-1.5-0.3-2-0.8l-7.7-7.6c-2.6,1.8-5.7,2.8-8.9,2.8c-8.7,0-15.7-7-15.7-15.7
			s7-15.7,15.7-15.7S224,86,224,94.7c0,3.2-1,6.3-2.8,8.9l7.7,7.7c0.5,0.5,0.8,1.3,0.8,2C229.8,114.7,228.5,116,226.9,116z
			 M208.3,84.5c-5.5,0-10,4.5-10,10s4.5,10,10,10s10-4.5,10-10S213.8,84.5,208.3,84.5z"/>
	</g>
</g>
<g id="_xF080_">
	<g>
		<path class="st0" d="M69.3,100.6H19V62.9h3.1v34.6h47.1v3.1H69.3z M34.8,94.3h-6.3V81.7h6.3V94.3z M44.2,94.3h-6.3V69.2h6.3V94.3z
			 M53.6,94.3h-6.3V75.4h6.3V94.3z M63,94.3h-6.3V66H63V94.3z"/>
	</g>
</g>
<g id="_xF292_">
	<g>
		<path class="st1" d="M153.3,13.9c-0.1,0.3-0.3,0.4-0.6,0.4h-6l-1.2,4.7h5.7c0.2,0,0.4,0.1,0.5,0.2s0.2,0.3,0.1,0.5l-1,4.1
			c-0.1,0.3-0.3,0.4-0.6,0.4h-6l-1.5,6c-0.1,0.3-0.3,0.4-0.6,0.4H138c-0.2,0-0.4-0.1-0.5-0.2s-0.1-0.3-0.1-0.5l1.4-5.7h-4.7l-1.5,6
			c-0.1,0.3-0.3,0.4-0.6,0.4h-4c-0.2,0-0.4-0.1-0.5-0.2s-0.1-0.3-0.1-0.5l1.4-5.7h-5.7c-0.2,0-0.4-0.1-0.5-0.2s-0.1-0.3-0.1-0.5
			l1-4.1c0.1-0.3,0.3-0.4,0.6-0.4h6l1.2-4.7h-5.7c-0.2,0-0.4-0.1-0.5-0.2c-0.1-0.1-0.2-0.3-0.1-0.5l1-4.1c0.1-0.3,0.3-0.4,0.6-0.4h6
			l1.5-6c0.1-0.3,0.3-0.4,0.6-0.4h4.1c0.2,0,0.4,0.1,0.5,0.2c0.1,0.1,0.1,0.3,0.1,0.5L138,9.1h4.7l1.5-6c0.1-0.3,0.3-0.4,0.6-0.4
			h4.1c0.2,0,0.4,0.1,0.5,0.2c0.1,0.1,0.1,0.3,0.1,0.5L148,9.1h5.7c0.2,0,0.4,0.1,0.5,0.2c0.1,0.1,0.1,0.3,0.1,0.5L153.3,13.9z
			 M141.3,14.4h-4.7l-1.2,4.7h4.7L141.3,14.4z"/>
	</g>
</g>
<g id="_xF122_">
	<g>
		<path class="st0" d="M262.3,146.5c0,0.7-0.4,1.3-1,1.6c-0.2,0.1-0.5,0.1-0.7,0.1c-0.5,0-0.9-0.2-1.2-0.5L245.7,134
			c-0.7-0.7-0.7-1.7,0-2.4l13.7-13.7c0.5-0.5,1.2-0.6,1.9-0.4c0.6,0.3,1,0.9,1,1.6v1.8l-10.6,10.7c-0.7,0.7-0.7,1.7,0,2.4l10.6,10.6
			V146.5z M288.7,159.7c-0.1,0.3-0.4,0.5-0.8,0.5c-0.1,0-0.2,0-0.2,0c-0.4-0.1-0.6-0.5-0.6-0.9c0.8-7.3-0.1-12.1-2.8-15.1
			c-2.3-2.5-6-3.9-11.7-4.4v6.7c0,0.7-0.4,1.3-1,1.6c-0.2,0.1-0.5,0.1-0.7,0.1c-0.5,0-0.9-0.2-1.2-0.5L255.9,134
			c-0.7-0.7-0.7-1.7,0-2.4l13.7-13.7c0.5-0.5,1.2-0.6,1.9-0.4c0.6,0.3,1,0.9,1,1.6v7c7.4,0.5,12.7,2.5,16,5.9
			c4,4.2,4.5,9.8,4.5,13.6C293.1,151.2,288.9,159.4,288.7,159.7z"/>
	</g>
</g>
<g id="_xF0A2_">
	<g>
		<path class="st1" d="M140.2,171.5H124c0,5.1-4.2,9.3-9.3,9.3s-9.3-4.2-9.3-9.3H89.1c-2.5,0-4.6-2.1-4.6-4.6
			c5.4-4.5,11.6-12.7,11.6-30.2c0-7,5.8-14.6,15.4-16c-0.2-0.4-0.3-0.9-0.3-1.4c0-1.9,1.6-3.5,3.5-3.5s3.5,1.6,3.5,3.5
			c0,0.5-0.1,1-0.3,1.4c9.6,1.4,15.4,9,15.4,16c0,17.5,6.2,25.6,11.6,30.2C144.8,169.4,142.7,171.5,140.2,171.5z M138.2,166.9
			c-6.5-7.3-9.6-17.3-9.6-30.2c0-4.7-4.4-11.6-13.9-11.6s-13.9,6.9-13.9,11.6c0,12.9-3.2,22.9-9.6,30.2H138.2z M114.6,176.7
			c-2.9,0-5.2-2.4-5.2-5.2c0-0.3-0.3-0.6-0.6-0.6s-0.6,0.3-0.6,0.6c0,3.5,2.9,6.4,6.4,6.4c0.3,0,0.6-0.3,0.6-0.6
			C115.2,177,115,176.7,114.6,176.7z"/>
	</g>
</g>
<g id="_xF19D_">
	<g class="st4">
		<path class="st0" d="M238,130.3l-21.2,6.7c-0.1,0-0.1,0-0.2,0c-0.1,0-0.1,0-0.2,0l-12.4-3.9c-1.1,0.9-1.8,2.9-2,5.5
			c0.7,0.4,1.2,1.2,1.2,2.1c0,0.9-0.4,1.6-1.1,2l1.1,8.2c0,0.2,0,0.3-0.2,0.5c-0.1,0.1-0.3,0.2-0.5,0.2h-3.6c-0.2,0-0.3-0.1-0.5-0.2
			c-0.1-0.1-0.2-0.3-0.2-0.5l1.1-8.2c-0.7-0.4-1.1-1.2-1.1-2c0-0.9,0.5-1.7,1.2-2.1c0.1-2.2,0.7-4.6,1.9-6.3l-6.3-2
			c-0.2-0.1-0.4-0.3-0.4-0.6s0.2-0.5,0.4-0.6l21.2-6.7c0.1,0,0.1,0,0.2,0c0.1,0,0.1,0,0.2,0l21.2,6.7c0.2,0.1,0.4,0.3,0.4,0.6
			S238.2,130.2,238,130.3z M228.7,141.8c0.2,2.7-5.4,4.9-12.1,4.9s-12.3-2.2-12.1-4.9l0.3-6l10.9,3.4c0.3,0.1,0.6,0.1,0.9,0.1
			s0.6,0,0.9-0.1l10.9-3.4L228.7,141.8z"/>
	</g>
</g>
<g id="_xF05A_">
	<g>
		<path class="st1" d="M168.6,171.5c-11.8,0-21.4-9.6-21.4-21.4s9.6-21.4,21.4-21.4c11.8,0,21.4,9.6,21.4,21.4
			S180.4,171.5,168.6,171.5z M175.7,159c0-0.5-0.4-0.9-0.9-0.9h-2.7v-14.3c0-0.5-0.4-0.9-0.9-0.9h-8.9c-0.5,0-0.9,0.4-0.9,0.9v4.5
			c0,0.5,0.4,0.9,0.9,0.9h2.7v8.9h-2.7c-0.5,0-0.9,0.4-0.9,0.9v4.5c0,0.5,0.4,0.9,0.9,0.9h12.5c0.5,0,0.9-0.4,0.9-0.9L175.7,159
			L175.7,159z M172.1,134c0-0.5-0.4-0.9-0.9-0.9h-5.4c-0.5,0-0.9,0.4-0.9,0.9v4.5c0,0.5,0.4,0.9,0.9,0.9h5.4c0.5,0,0.9-0.4,0.9-0.9
			V134z"/>
	</g>
</g>
<g id="_xF209_">
	<g>
		<path class="st0" d="M159.4,54.9c-0.4-1-0.9-2.4-0.9-3.5c0-2.7,3.4-6.2,6.1-6.2c0.8,0,1.6,0.2,2.3,0.5c-1.4-4-5.5-15.2-5.5-19
			c0-3.4,1.7-6.1,5.4-6.1c4.7,0,10,16.9,11.1,20.2c1.5-3.7,6.1-19.1,11.3-19.1c3.3,0,5.1,2.6,5.1,5.7c0,3.5-4,14.6-5.3,18.4
			c5.6,1.4,6.4,5.9,6.4,11c0,13.4-8.5,23.8-22.4,23.8c-2.5,0-5.1-0.5-7.5-1.4c-6.4-2.4-12.3-8.9-12.3-16
			C153.4,59,155.1,56.1,159.4,54.9z M158.1,66.5c2.6,6.5,8.6,10.3,15.6,10.3c5.1,0,9.4-1.9,12.8-5.7c3.6-4,5.1-9,5.1-14.3
			c0-1.9,0-4.9-1.4-6.2c-2.8-2.5-12.4-3.4-16.1-3.4c-0.5,0-1.3,0-1.6,0.4c-0.4,0.2-0.4,0.8-0.4,1.2c0,5.1,10.8,4.7,14.1,4.7
			c0.6,0,0.9,0.2,1.3,0.6c0.4,0.5,0.6,1.2,0.6,1.8c-0.9,0.9-2.1,1.4-3.2,1.8c-1.1,0.4-2.2,0.8-3.1,1.5c-2.6,1.9-5.1,5.1-5.1,8.4
			c0,2.1,1.2,3.8,1.2,5.9c0,0-0.2,0.8-0.2,0.9c-3.8-0.3-4.8-4.1-4.9-7.2c-0.4,0.1-0.9,0.1-1.4,0.1c0.1,0.2,0.1,0.5,0.1,0.7
			c0,2.4-2.2,4.2-4.5,4.2c-3.6,0-8.4-4.3-8.4-7.9c0-1,0.4-1.6,1.1-2.2c0.7,0.8,1.4,1.7,2,2.5c1,1.3,2.6,3.5,4.5,3.5
			c0.5,0,1.4-0.4,1.4-1c0-1.5-5.5-8.6-6.8-8.6c-2.1,0-3.2,2.8-3.2,4.5C157.2,64.2,157.6,65.4,158.1,66.5z M171.5,63.2
			c0.7,0,1.2-0.7,1.2-1.3c0-0.8-0.8-2.7-1.1-3.4c-0.9-2.2-4.1-9.2-6.8-9.2c-0.9,0-2.4,1.6-2.4,2.5C162.5,54.2,169.1,63.2,171.5,63.2
			z M170.5,43.8c0.5-0.3,1.1-0.3,1.6-0.3c0.8,0,1.7,0.1,2.5,0.2l-4.1-11.8c-0.4-1.3-2.4-7.4-4.1-7.4c-0.9,0-1.3,1.1-1.3,1.8
			C165.2,29.8,169.2,40.4,170.5,43.8z M176,59.3c0.7-0.8,1.5-1.6,2.4-2.2c-1.2-0.2-2.3-0.3-3.5-0.7C175.3,57.4,175.7,58.3,176,59.3z
			 M181.1,44.4l3.9,0.7c1-2.7,5.5-15.1,5.5-17.3c0-0.8-0.3-1.9-1.3-1.9c-1.9,0-3.9,6.1-4.4,7.5L181.1,44.4z"/>
	</g>
</g>
<g id="_xF201_">
	<g>
		<path class="st1" d="M184.6,122.5h-50.3V84.8h3.1v34.6h47.1v3.1H184.6z M181.5,99.4c0,0.7-0.8,1.1-1.4,0.5l-3-3l-15.5,15.5
			c-0.3,0.3-0.8,0.3-1.1,0l-5.7-5.7L144.6,117l-4.7-4.7l14.4-14.4c0.3-0.3,0.8-0.3,1.1,0l5.7,5.7l11.4-11.4l-3-3
			c-0.5-0.5-0.1-1.4,0.5-1.4h10.7c0.4,0,0.8,0.3,0.8,0.8V99.4z"/>
	</g>
</g>
<g id="_x3C_Type_x3E__4_">
</g>
<g id="_x3C_Type_x3E__3_">
</g>
<g id="_xF15A_">
	<g>
		<g>
			<defs>
				<rect id="SVGID_1_" x="68.3" y="174.5" width="41.5" height="25.2"/>
			</defs>
			<clipPath id="SVGID_2_">
				<use xlink:href="#SVGID_1_"  style="overflow:visible;"/>
			</clipPath>
			<g class="st5">
				<path class="st0" d="M102.6,198.7c4.1,1,6.6,3.4,6.1,8.8c-0.6,6.8-5.7,8.6-12.9,9v7.1h-4.3v-7c-1.1,0-2.2,0-3.4,0v7h-4.3v-7.1
					c-1,0-2,0-3,0h-5.6l0.9-5.1c3.2,0.1,3.1,0,3.1,0c1.2,0,1.5-0.9,1.6-1.4v-11.2c0.1,0,0.3,0,0.4,0c-0.2,0-0.3,0-0.4,0v-8
					c-0.2-0.9-0.7-1.9-2.5-1.9c0,0,0.1-0.1-3.1,0v-4.6h5.9c0.9,0,1.8,0,2.7,0v-7h4.3v6.9c1.1,0,2.3-0.1,3.4-0.1v-6.8h4.3v7
					c5.5,0.5,9.9,2.2,10.4,7.3C106.6,195.2,105.1,197.5,102.6,198.7z M88.3,189.1v8.6c2.4,0,10,0.6,10-4.3
					C98.3,188.4,90.7,189.1,88.3,189.1z M88.3,202v9.4c2.9,0,12,0.6,12-4.7C100.3,201.2,91.2,202,88.3,202z"/>
			</g>
		</g>
	</g>
</g>
<g id="_xF08A_">
	<g>
		<path class="st1" d="M231,186.6l-16.7,16.1c-0.3,0.3-0.8,0.5-1.2,0.5s-0.9-0.2-1.2-0.5l-16.7-16.1c-0.2-0.2-6.1-5.6-6.1-12
			c0-7.8,4.8-12.5,12.8-12.5c4.7,0,9.1,3.7,11.2,5.8c2.1-2.1,6.5-5.8,11.2-5.8c8,0,12.8,4.7,12.8,12.5
			C237.1,181,231.2,186.3,231,186.6z M224.3,165.4c-4,0-8.5,4.3-9.9,6c-0.6,0.8-2,0.8-2.6,0c-1.4-1.7-5.9-6-9.9-6
			c-4.3,0-9.4,1.6-9.4,9.1c0,4.9,5,9.5,5,9.5l15.6,15l15.5-15c0.1-0.1,5-4.6,5-9.5C233.7,167,228.6,165.4,224.3,165.4z"/>
	</g>
</g>
<g id="_xF11D_">
	<g>
		<path class="st0" d="M247.9,157.7v26.9c0,0.4-0.3,0.7-0.7,0.7h-1.4c-0.4,0-0.7-0.3-0.7-0.7v-26.9c-0.8-0.5-1.4-1.3-1.4-2.3
			c0-1.5,1.2-2.7,2.7-2.7s2.7,1.2,2.7,2.7C249.2,156.4,248.7,157.2,247.9,157.7z M280.4,172.9c0,0.5-0.3,1-0.7,1.2
			c-0.1,0-0.2,0.1-0.4,0.2c-1.4,0.7-4.6,2.5-7.8,2.5c-1.3,0-2.4-0.3-3.4-0.7l-0.6-0.3c-2.1-1.1-3.8-1.9-6.4-1.9
			c-3.1,0-7.4,1.6-9.8,3.1c-0.2,0.1-0.5,0.2-0.7,0.2s-0.5-0.1-0.7-0.2c-0.4-0.3-0.7-0.7-0.7-1.2V160c0-0.5,0.3-0.9,0.7-1.2
			c1.4-0.8,6.2-3.5,10.6-3.5c3.5,0,6.4,1.3,8.9,2.5c0.6,0.3,1.2,0.4,1.9,0.4c2.5,0,5.3-1.6,6.6-2.4c0.3-0.1,0.5-0.3,0.7-0.4
			c0.4-0.2,0.9-0.2,1.3,0c0.4,0.3,0.7,0.7,0.7,1.2v16.3H280.4z M277.7,159c-1.7,0.9-4.1,1.9-6.5,1.9c-1.1,0-2.2-0.2-3.1-0.7
			c-2.3-1.1-4.7-2.2-7.7-2.2c-2.7,0-6.1,1.3-8.5,2.7v12.7c2.8-1.3,6.4-2.4,9.2-2.4c3.3,0,5.4,1.1,7.7,2.2l0.6,0.3
			c0.6,0.3,1.3,0.5,2.1,0.5c2.4,0,4.9-1.3,6.2-2L277.7,159L277.7,159z"/>
	</g>
</g>
<g id="_x3C_Type_x3E__2_">
</g>
<g id="_xF02D_">
	<g>
		<path class="st0" d="M84.6,130.2l-8.3,27.3c-0.8,2.6-3.4,4.6-6,4.6H42.5c-3.1,0-6.4-2.4-7.5-5.6c-0.5-1.4-0.5-2.7-0.1-3.8
			c0.1-0.6,0.2-1.2,0.2-1.9c0-0.5-0.2-0.9-0.2-1.2c0.1-0.7,0.8-1.2,1.2-2c0.9-1.5,1.9-3.9,2.3-5.5c0.2-0.6-0.2-1.2,0-1.7
			c0.2-0.6,0.7-1,1-1.5c0.8-1.4,1.9-4.1,2-5.5c0.1-0.6-0.2-1.3-0.1-1.8c0.2-0.7,0.9-1,1.3-1.6c0.7-1,1.9-3.9,2.1-5.5
			c0.1-0.5-0.2-1-0.2-1.6c0.1-0.6,0.8-1.2,1.3-1.9c1.3-1.9,1.5-6,5.3-4.9v0.1c0.5-0.1,1-0.3,1.5-0.3h22.9c1.4,0,2.7,0.6,3.4,1.7
			c0.8,1.1,1,2.5,0.5,3.9l-8.3,27.3c-1.4,4.6-2.2,5.7-6,5.7H39.4c-0.4,0-0.9,0.1-1.1,0.5c-0.2,0.4-0.3,0.6,0,1.3
			c0.6,1.7,2.7,2.1,4.3,2.1h27.8c1.1,0,2.4-0.6,2.7-1.7l9-29.7c0.2-0.6,0.2-1.2,0.2-1.7c0.7,0.3,1.3,0.7,1.8,1.3
			C84.8,127.4,85,128.8,84.6,130.2z M50.1,135.1h18.3c0.5,0,1.1-0.4,1.3-1l0.6-1.9c0.2-0.5-0.1-1-0.7-1H51.4c-0.5,0-1.1,0.4-1.3,1
			l-0.6,1.9C49.3,134.7,49.6,135.1,50.1,135.1z M52.6,127.4H71c0.5,0,1.1-0.4,1.3-1l0.6-1.9c0.2-0.5-0.1-1-0.7-1H53.9
			c-0.5,0-1.1,0.4-1.3,1l-0.6,1.9C51.8,126.9,52.1,127.4,52.6,127.4z"/>
	</g>
</g>
<g id="_x3C_Type_x3E__1_">
</g>
<g id="_x3C_Type_x3E_">
</g>
<g id="_xF0E6_">
	<g>
		<path class="st1" d="M98.7,37.2c0,6.6-7.4,12-16.5,12c-1.4,0-2.8-0.1-4.1-0.4c-1.9,1.4-4.1,2.4-6.5,3c-0.6,0.2-1.3,0.3-2,0.4
			c0,0,0,0-0.1,0c-0.4,0-0.7-0.3-0.8-0.7c-0.1-0.4,0.2-0.7,0.5-1c0.9-1,1.9-1.9,2.7-3.9c-3.8-2.2-6.2-5.6-6.2-9.4
			c0-6.6,7.4-12,16.5-12S98.7,30.6,98.7,37.2z M68.7,37.2c0,2.6,1.7,5.1,4.7,6.8l2.3,1.3l-0.8,2c0.5-0.3,1-0.6,1.5-0.9l1-0.7
			l1.2,0.2c1.2,0.2,2.4,0.3,3.6,0.3c7.3,0,13.5-4.1,13.5-9s-6.2-9-13.5-9S68.7,32.3,68.7,37.2z M104.2,56.5c0.3,0.3,0.6,0.6,0.5,1
			s-0.4,0.7-0.8,0.7c-0.7-0.1-1.4-0.2-2-0.4c-2.4-0.6-4.6-1.6-6.5-3c-1.3,0.2-2.7,0.4-4.1,0.4c-4.2,0-8.1-1.2-11.1-3.1
			c0.7,0,1.4,0.1,2.1,0.1c5,0,9.8-1.5,13.4-4.1c3.9-2.9,6.1-6.7,6.1-10.9c0-1.2-0.2-2.4-0.5-3.6c4,2.2,6.5,5.6,6.5,9.6
			c0,3.8-2.4,7.2-6.2,9.4C102.2,54.6,103.3,55.5,104.2,56.5z"/>
	</g>
</g>
<g id="_xF27B_">
	<g>
		<path class="st0" d="M239,64.7c-1.4,0-2.8-0.1-4.2-0.2c-3.8,3.4-8.3,5.7-13.4,7c-1,0.3-2.2,0.5-3.3,0.6c-0.1,0-0.1,0-0.1,0
			c-0.6,0-1.1-0.5-1.2-1.1l0,0c-0.1-0.7,0.3-1.2,0.8-1.7c1.8-2.1,3.9-3.8,5.3-8.6c-6-3.4-9.8-8.6-9.8-14.5c0-10.2,11.6-18.6,26-18.6
			s26,8.3,26,18.6C265,56.4,253.4,64.7,239,64.7z M216.7,46.1c0,4.3,2.9,8.4,7.9,11.3l2.5,1.5l-0.8,2.8c-0.6,2.1-1.3,3.7-2,5
			c2.9-1.2,5.6-2.9,8-5l1.2-1.1l1.7,0.2c1.2,0.1,2.5,0.2,3.8,0.2c12.1,0,22.3-6.8,22.3-14.9S251.1,31.3,239,31.3
			S216.7,38.1,216.7,46.1z M227.9,49.8c-2.1,0-3.7-1.7-3.7-3.7s1.7-3.7,3.7-3.7s3.7,1.7,3.7,3.7S229.9,49.8,227.9,49.8z M239,49.8
			c-2.1,0-3.7-1.7-3.7-3.7s1.7-3.7,3.7-3.7s3.7,1.7,3.7,3.7S241.1,49.8,239,49.8z M250.2,49.8c-2.1,0-3.7-1.7-3.7-3.7
			s1.7-3.7,3.7-3.7s3.7,1.7,3.7,3.7S252.2,49.8,250.2,49.8z"/>
	</g>
</g>
<g id="Shape_1_1_" class="st4">
	<g id="Shape_1">
		<g>
			<path class="st1" d="M157.1,16.1c38.4,0,74.3,10.4,101,29.2c25.1,17.7,39,40.7,39,64.7c0,23.1-12.9,45.3-36.3,62.7
				c-24.8,18.5-58.6,29.5-95,31l-7,0.3l-4.4,5.5c-7.9,9.9-15.6,18.2-23.1,24.9c1.6-4.4,3.1-9,4.5-13.9l4.8-16.5l-17-2.8
				c-30.7-5.1-58.3-17.4-77.8-34.5C32.7,155.2,17,136,17,110c0-24,13.9-47,39-64.7C82.8,26.5,118.7,16.1,157.1,16.1 M157.1,0.8
				C71.3,0.8,1.7,49.7,1.7,110c0,51.6,51,94.9,119.4,106.3c-5.6,19.3-14.9,42.1-29.5,53.5h0.1c28.1,0,55.8-26.9,74.8-50.7
				c81.4-3.4,146-50.9,146-109C312.5,49.7,242.9,0.8,157.1,0.8L157.1,0.8z"/>
		</g>
	</g>
</g>
</svg>
