<?xml version="1.0" encoding="utf-8"?>
<!-- Generator: Adobe Illustrator 22.0.0, SVG Export Plug-In . SVG Version: 6.00 Build 0)  -->
<svg version="1.1" xmlns="http://www.w3.org/2000/svg" xmlns:xlink="http://www.w3.org/1999/xlink" x="0px" y="0px"
	 viewBox="0 0 319.7 274.1" style="enable-background:new 0 0 319.7 274.1;" xml:space="preserve">
<style type="text/css">
	.st0{fill:#FAFAFA;}
	.st1{font-family:'FontAwesome';}
	.st2{font-size:48px;}
	.st3{fill:#FFFFFF;}
	.st4{font-size:44px;}
	.st5{font-size:40px;}
	.st6{font-size:65px;}
	.st7{font-size:34px;}
	.st8{font-size:50px;}
	.st9{font-size:60px;}
	.st10{clip-path:url(#SVGID_2_);}
	.st11{clip-path:url(#SVGID_4_);}
	.st12{font-size:33px;}
	.st13{font-size:38px;}
	.st14{font-size:54px;}
	.st15{font-size:42px;}
	.st16{font-size:52px;}
	.st17{enable-background:new    ;}
</style>
<g id="_xF0A1_">
	<text transform="matrix(1 0 0 1 126.3058 211.8466)" class="st0 st1 st2"></text>
</g>
<g id="_xF0F4_">
	<text transform="matrix(1 0 0 1 75.1745 105.4311)" class="st3 st1 st2"> </text>
</g>
<g id="_xF2B5_">
	<text transform="matrix(1 0 0 1 234.922 105.3618)" class="st0 st1 st4"> </text>
</g>
<g id="_x3C_Type_x3E__5_">
	<text transform="matrix(1 0 0 1 138.9001 118.5561)" class="st3 st1 st2"> </text>
</g>
<g id="_xF128_">
	<text transform="matrix(1 0 0 1 118.3649 72.2138)" class="st0 st1 st2"></text>
</g>
<g id="_xF002_">
	<text transform="matrix(1 0 0 1 192.6056 110.2426)" class="st3 st1 st5"></text>
</g>
<g id="_xF080_">
	<text transform="matrix(1 0 0 1 19.0407 97.4458)" class="st0 st1 st4"></text>
</g>
<g id="_xF292_">
</g>
<g id="_xF122_">
	<text transform="matrix(1 0 0 1 245.1447 156.7773)" class="st0 st1 st2"></text>
</g>
<g id="_xF0A2_">
	<text transform="matrix(1 0 0 1 82.1398 171.5273)" class="st3 st1 st6"></text>
</g>
<g id="_xF19D_">
	<text transform="matrix(1 0 0 1 194.672 149.1298)" class="st0 st1 st7"></text>
</g>
<g id="_xF05A_">
	<text transform="matrix(1 0 0 1 147.1217 167.957)"><tspan x="0" y="0" class="st3 st1 st8"></tspan><tspan x="42.9" y="0" class="st3 st1 st2"> </tspan></text>
</g>
<g id="_xF209_">
	<text transform="matrix(1 0 0 1 153.0358 72.1518)" class="st0 st1 st9"></text>
</g>
<g id="_xF201_">
	<text transform="matrix(1 0 0 1 134.3586 119.3252)" class="st3 st1 st4"></text>
</g>
<g id="_x3C_Type_x3E__4_">
</g>
<g id="_x3C_Type_x3E__3_">
</g>
<g id="_xF15A_">
	<g>
		<defs>
			<rect id="SVGID_1_" x="68.3" y="174.5" width="41.5" height="25.2"/>
		</defs>
		<clipPath id="SVGID_2_">
			<use xlink:href="#SVGID_1_"  style="overflow:visible;"/>
		</clipPath>
		<g class="st10">
		</g>
		<g class="st10">
			<text transform="matrix(1 0 0 1 73.6999 216.5175)" class="st0 st1 st8"></text>
		</g>
	</g>
	<g>
		<defs>
			<rect id="SVGID_3_" x="118.4" y="6.5" width="38.5" height="27.5"/>
		</defs>
		<clipPath id="SVGID_4_">
			<use xlink:href="#SVGID_3_"  style="overflow:visible;"/>
		</clipPath>
		<g class="st11">
			<text transform="matrix(1 0 0 1 121.9171 28.52)" class="st3 st1 st12"></text>
		</g>
	</g>
</g>
<g id="_xF08A_">
	<text transform="matrix(1 0 0 1 189.1154 199.705)" class="st3 st1 st2"></text>
</g>
<g id="_xF11D_">
	<text transform="matrix(1 0 0 1 242.4347 182.5234)" class="st0 st1 st13"></text>
</g>
<g id="_x3C_Type_x3E__2_">
</g>
<g id="_xF02D_">
	<text transform="matrix(1 0 0 1 34.6491 158.2168)" class="st0 st1 st14"></text>
</g>
<g id="_x3C_Type_x3E__1_">
</g>
<g id="_x3C_Type_x3E_">
</g>
<g id="_xF0E6_">
	<text transform="matrix(1 0 0 1 65.674 55.2075)" class="st3 st1 st15"></text>
</g>
<g id="_xF27B_">
	<text transform="matrix(1 0 0 1 213.0187 64.7026)" class="st0 st1 st16"></text>
</g>
<g id="Shape_1_1_" class="st17">
	<g id="Shape_1">
		<g>
			<path class="st3" d="M157.1,16.1c38.4,0,74.3,10.4,101,29.2c25.1,17.7,39,40.7,39,64.7c0,23.1-12.9,45.3-36.3,62.7
				c-24.8,18.5-58.6,29.5-95,31l-7,0.3l-4.4,5.5c-7.9,9.9-15.6,18.2-23.1,24.9c1.6-4.4,3.1-9,4.5-13.9l4.8-16.5l-17-2.8
				c-30.7-5.1-58.3-17.4-77.8-34.5C32.7,155.2,17,136,17,110C17,86,30.9,63,56,45.3C82.8,26.5,118.7,16.1,157.1,16.1 M157.1,0.8
				C71.3,0.8,1.7,49.7,1.7,110c0,51.6,51,94.9,119.4,106.3c-5.6,19.3-14.9,42.1-29.5,53.5c0,0,0.1,0,0.1,0
				c28.1,0,55.8-26.9,74.8-50.7c81.4-3.4,146-50.9,146-109C312.5,49.7,242.9,0.8,157.1,0.8L157.1,0.8z"/>
		</g>
	</g>
</g>
</svg>
