<?xml version="1.0" encoding="utf-8"?>
<!-- Generator: Adobe Illustrator 22.0.0, SVG Export Plug-In . SVG Version: 6.00 Build 0)  -->
<svg version="1.1" id="Layer_1" xmlns="http://www.w3.org/2000/svg" xmlns:xlink="http://www.w3.org/1999/xlink" x="0px" y="0px"
	 viewBox="0 0 684 184.7" style="enable-background:new 0 0 684 184.7;" xml:space="preserve">
<style type="text/css">
	.st0{fill:#00C9EA;}
	.st1{fill:#007BBF;}
	.st2{fill:#0084CE;}
	.st3{fill:#05A6E5;}
	.st4{fill:#FFFFFF;}
</style>
<g>
	<g>
		<g>
			<path class="st0" d="M125.6,116.7c0-0.3,0-0.5,0-0.8c-0.1-0.9-0.1-1.8-0.2-2.7c0-0.4-0.1-0.8-0.1-1.2c-0.1-0.6-0.1-1.1-0.2-1.7
				c-0.1-0.4-0.1-0.9-0.2-1.3c-0.1-0.8-0.3-1.5-0.4-2.3c-0.1-0.4-0.2-0.9-0.3-1.3c-0.1-0.5-0.2-1-0.4-1.5c-0.1-0.4-0.2-0.8-0.3-1.2
				c-0.2-0.8-0.4-1.5-0.7-2.3c-0.7-2.3-1.6-4.5-2.6-6.7c-2.4-5.4-5.6-10.3-9.3-14.7c-3.3-3.9-7.1-7.4-11.2-10.3
				c-0.6-0.4-1.3-0.9-1.9-1.3c-0.1-0.1-0.2-0.1-0.2-0.2c-0.5-0.4-1.1-0.7-1.7-1.1c-0.3-0.2-0.6-0.4-0.9-0.5c-0.3-0.2-0.7-0.4-1-0.6
				c-0.6-0.4-1.3-0.7-1.9-1c0,0-0.1,0-0.1-0.1c-1.5-0.8-3-1.5-4.6-2.1c-4.9-2-9.9-3.4-14.8-4.2c0,0,0,0-0.1,0
				c-0.8-0.1-1.6-0.2-2.3-0.3c-0.1,0-0.3,0-0.4,0c-0.7-0.1-1.4-0.1-2-0.2c-0.1,0-0.1,0-0.2,0c-1.4-0.1-2.9-0.2-4.3-0.2
				c-7,0-13.8,1.2-20.1,3.3l20.8,41.6l5.9-11.4l0.4-0.9c0,0,4.3,0.4,11,5.1l0,0c0,0,1.2,0.7,3.1,2.4c3.3,2.9,6.3,6.9,8,12.1
				c1.8,4.7,2.6,10.5,1,17.1c-0.9,4.5-2.7,8.1-4.9,11.1c-4.9,7.3-11.8,11.8-18,13.1c-2.7,0.8-4.6,1.1-4.6,1.1l-2.6,18.9c0,0,0,0,0,0
				c0.1,0,31.3-6.1,39.2-8.2c0.9-0.7,1.9-1.3,2.8-1.9c6.2-4.4,11.5-8,11.5-8c1.6-2.6,3-5.4,4.3-8.4c2-4.8,3.4-9.8,4.1-14.8
				c0-0.3,0.1-0.5,0.1-0.8c0-0.3,0.1-0.6,0.1-0.9c0.1-0.8,0.2-1.5,0.2-2.3c0-0.2,0-0.4,0.1-0.7c0.1-0.9,0.1-1.9,0.1-2.8
				c0-0.3,0-0.6,0-0.9c0-0.6,0-1.2,0-1.8C125.7,118.1,125.7,117.4,125.6,116.7z"/>
		</g>
		<g>
			<path class="st1" d="M38.4,177.1c-0.5-0.2-1-0.4-1.5-0.6C37.4,176.7,37.9,176.9,38.4,177.1z"/>
			<path class="st1" d="M35.4,175.8c-0.5-0.3-1.1-0.5-1.6-0.8C34.3,175.2,34.8,175.5,35.4,175.8z"/>
			<path class="st1" d="M32.4,174.2c-0.6-0.3-1.2-0.6-1.7-1C31.3,173.6,31.9,173.9,32.4,174.2z"/>
			<path class="st1" d="M28.2,171.7c0.4,0.3,0.9,0.6,1.4,0.9c-0.6-0.4-1.2-0.7-1.7-1.1C28,171.5,28.1,171.6,28.2,171.7z"/>
			<path class="st1" d="M24.7,169.1c-0.5-0.4-1-0.8-1.5-1.2C23.7,168.3,24.2,168.7,24.7,169.1z"/>
			<path class="st1" d="M41,178.2c-0.3-0.1-0.6-0.2-0.9-0.3C40.4,178,40.7,178.1,41,178.2z"/>
			<path class="st1" d="M52.6,181.3c0.2,0,0.3,0,0.5,0.1c-0.5-0.1-1-0.2-1.5-0.3C51.9,181.2,52.3,181.3,52.6,181.3z"/>
			<path class="st1" d="M49.6,180.8c-0.4-0.1-0.8-0.2-1.2-0.3C48.8,180.6,49.2,180.7,49.6,180.8z"/>
			<path class="st1" d="M46.3,179.9c-0.2,0-0.4-0.1-0.5-0.2C46,179.8,46.1,179.9,46.3,179.9z"/>
			<path class="st4" d="M77.4,130l6.7,12.1c0,0-3,3.7-11.5,6.8c-0.7,0.3-1.5,0.5-2.3,0.7c-6.8,1.9-15.2,1.6-24.4-4.5
				c-6.2-4.1-9.7-9-11.5-14c3.9,23.9,12.5,40.5,19.2,50.4c5.5,0.8,11.1,0.9,16.6,0.3c5.1-0.6,10-1.8,14.8-3.6
				c11.9-4.4,22.5-12.5,30.1-23.8c3.9-5.9,6.7-12.1,8.4-18.6L77.4,130z"/>
			<path class="st1" d="M20.8,165.8c0.3,0.2,0.5,0.5,0.8,0.7c-0.3-0.3-0.6-0.5-0.9-0.8C20.8,165.8,20.8,165.8,20.8,165.8z"/>
			<path class="st0" d="M2.2,134.5c-1.2-4.8-1.8-9.8-1.8-14.9c0-13.8,4.5-26.6,12.1-37c1.3-1.8,2.7-3.5,4.2-5.2
				c5.5-6,12.1-11,19.6-14.5c4-21,11.2-37.5,23-64.2c0,0-40.4,26.4-55,71.8l0,0c0,0-13.9,39.8-0.5,70.2c1.3,3.7,2.9,7.1,4.9,10
				c0,0,0,0,0.1,0.1c-1.2-2-2.2-4.1-3.2-6.3C4.2,141.3,3.1,138,2.2,134.5z"/>
			<path class="st3" d="M53.7,181.5c-6.7-9.9-15.3-26.4-19.2-50.4c-0.7-4.3-1.3-8.9-1.6-13.8c-0.4-5.1-0.6-10.4-0.5-16
				c0.1-11.6,1.3-24.4,4-38.5c-7.4,3.5-14.1,8.5-19.6,14.5c-1.5,1.6-2.9,3.4-4.2,5.2C4.9,93,0.4,105.7,0.4,119.6
				c0,5.1,0.6,10.1,1.8,14.9c0.8,3.5,2,6.8,3.4,10c0.9,2.2,2,4.3,3.2,6.3c3.2,5.6,7.3,10.6,12,15c0.3,0.3,0.6,0.5,0.9,0.8
				c0.5,0.4,1,0.9,1.5,1.3c0.5,0.4,1,0.8,1.5,1.2c1,0.8,2.1,1.6,3.2,2.3c0.6,0.4,1.2,0.8,1.7,1.1c0.4,0.2,0.8,0.5,1.1,0.7
				c0.6,0.3,1.1,0.7,1.7,1c0.4,0.2,0.9,0.5,1.3,0.7c0.5,0.3,1.1,0.5,1.6,0.8c0.5,0.2,1,0.5,1.5,0.7c0.5,0.2,1,0.4,1.5,0.6
				c0.6,0.2,1.1,0.5,1.7,0.7c0.3,0.1,0.6,0.2,0.9,0.3c0.8,0.3,1.6,0.6,2.4,0.8c0.8,0.3,1.6,0.5,2.4,0.7c0.2,0.1,0.4,0.1,0.5,0.2
				c0.7,0.2,1.4,0.4,2.1,0.5c0.4,0.1,0.8,0.2,1.2,0.3c0.7,0.1,1.3,0.3,2,0.4c0.5,0.1,1,0.2,1.5,0.3
				C53.3,181.4,53.5,181.5,53.7,181.5C53.7,181.5,53.7,181.5,53.7,181.5z"/>
		</g>
	</g>
	<g>
		<path class="st4" d="M184.1,63.1v34.8c6.1-10.1,17.6-13.7,24.9-13.7c23,0,37.5,18.8,37.5,40c0,20.8-15.7,40.9-37.5,40.9
			c-9.2,0-18.7-3.3-24.9-12.6v0.8c0,7-4.8,11.8-11.7,11.8c-4.4,0-8.2-3-8.2-7.8c0-4.7,3-6.2,3-6.2c0.8-0.5,1.4-0.9,1.4-2.6V67.9
			c0-1.7-0.6-2.2-1.4-2.6c0,0-3-1.4-3-6.1c0-4.8,3.9-7.9,8.2-7.9C179.3,51.2,184.1,56.1,184.1,63.1z M184.3,125
			c0,14.2,10.7,25.2,23.5,25.2c12.6,0,23-11,23-25.2c0-14-10.4-25.3-23-25.3C193.6,99.6,184.3,111.9,184.3,125z"/>
		<path class="st4" d="M282,157.1c0,4.8-3.7,7.9-8.1,7.9c-6.8,0-11.7-4.8-11.7-11.8v-52.4c0-1.7-0.6-2.2-1.4-2.6
			c0,0-2.8-1.4-2.8-6.1c0-4.8,3.7-7.9,8.1-7.9c6.8,0,11.7,4.8,11.7,11.8v52.4c0,1.7,0.6,2.2,1.4,2.6
			C279.2,151.1,282,152.5,282,157.1z M258.3,58.1c0-5.3,4.4-9.6,9.6-9.6c5.4,0,9.8,4.4,9.8,9.6c0,5.4-4.4,9.8-9.8,9.8
			C262.7,67.9,258.3,63.5,258.3,58.1z"/>
		<path class="st4" d="M317.3,72.7v11.5h16.2c10.7,0,10.7,15.6,0,15.6h-16.2v34.1c0,6.5,1.1,15.9,9.8,15.9c2.5,0,5.3-0.6,7.8-1.4
			c10.1-3.1,13.8,10.7,4.4,14.6c-3.6,1.6-7.8,2.2-12.4,2.2c-18.4,0-25-13.2-25-31.1V99.8h-4c-11.4,0-10.9-15.6,0-15.6h4v-6.7
			c0-1.7-0.6-2.2-1.4-2.6c0,0-2.8-1.4-2.8-6.1c0-4.8,3.7-7.9,8.1-7.9C312.5,60.9,317.3,65.7,317.3,72.7z"/>
		<path class="st4" d="M421.3,120.1c0-13.2-8.2-21.2-21.2-21.2c-11.8,0-21,10.3-21,20.4v33.9c0,7-4.8,11.8-11.7,11.8
			c-4.4,0-8.1-3.1-8.1-7.9c0-4.7,2.8-6.1,2.8-6.1c0.8-0.5,1.4-0.9,1.4-2.6v-47.6c0-1.7-0.6-2.2-1.4-2.6c0,0-2.8-1.4-2.8-6.1
			c0-4.8,3.7-7.9,8.1-7.9c6.4,0,10.9,4.2,11.5,10.4c5-6.1,14.8-11.2,22.2-11.2c25,0,35.6,12.1,35.6,37.6v27.4c0,1.7,0.6,2.2,1.4,2.6
			c0,0,2.8,1.4,2.8,6.1c0,4.8-3.7,7.9-8.1,7.9c-6.8,0-11.7-4.8-11.7-11.8V120.1z"/>
		<path class="st4" d="M512.6,153.9c-3.6,7.2-14.6,11.2-21.5,11.2c-26.4,0-36.7-13.7-36.7-39.2v-25c0-1.7-0.6-2.2-1.4-2.6
			c0,0-2.8-1.4-2.8-6.1c0-4.8,3.7-7.9,8.1-7.9c6.8,0,11.7,4.8,11.7,11.8v29.9c0,15.1,5.8,23.6,22.5,23.6c11.5,0,19.6-7.3,19.6-19.4
			V96c0-7,4.8-11.8,11.7-11.8c4.4,0,8.1,3.1,8.1,7.9c0,4.7-2.8,6.1-2.8,6.1c-0.8,0.5-1.4,0.9-1.4,2.6v47.6c0,1.7,0.6,2.2,1.4,2.6
			c0,0,2.8,1.4,2.8,6.1c0,4.8-3.7,7.9-8.1,7.9C517,165.1,512.6,160.4,512.6,153.9z"/>
		<path class="st4" d="M554.4,145.2c1.9,0,3.7,0.9,5,1.7c3.6,2.5,9,3.6,13.7,3.6c4.8,0,14.5-1.1,14.5-8.4c0-7-7.5-9.2-14.2-11.2
			c-11.8-3.6-26.9-9.8-26.9-24.1c0-15.6,15.4-23.3,29.2-23.3c7.2,0,14.5,1.9,20.8,6.7c1.9,1.4,3.1,3.6,3.1,5.9
			c0,4.7-3.3,7.8-7.6,7.8c-1.9,0-3.1-0.5-4.2-1.1c-4.2-2.5-7.8-3.9-13.2-3.9c-4.8,0-12.4,1.6-12.4,8.1c0,5.4,7,8.1,11.4,9.5
			c12.9,4.2,29.9,10.6,29.9,26.1c0,15.6-16.8,23.3-30.9,23.3c-9.5,0-25.3-3.3-25.3-12.9C547.1,148.9,550.4,145.2,554.4,145.2z"/>
		<path class="st4" d="M666.9,155.4c-1.7,2.3-7.5,10.4-20.7,10.4c-15.7,0-30.5-10.4-30.5-27.5c0-19,15.2-26.4,31.4-26.4
			c6.7,0,13.2,1.6,19.3,4.5c0-15.9-6.8-18.2-15.9-18.2c-10.6,0-15.7,2.2-15.7,2.2C630,102.1,625,99,625,94c0-3.7,2.5-6.7,5.6-7.6
			c5.9-1.7,12-3,19.1-3c21.5,0,32.2,10.1,32.2,27.7v37.2c0,1.7,0.6,2.5,1.4,3c0,0,2.6,1.2,2.6,5.9c0,4.7-3.4,7.9-8.1,7.9
			C671.7,165.1,667,161.5,666.9,155.4z M651.2,124.3c-9.5,0-19.9,2.8-19.9,14.2c0,8.2,7.8,12.3,15.1,12.3c9.2,0,19.6-5.8,20.1-15.6
			V129C661.1,125.3,654.4,124.3,651.2,124.3z"/>
	</g>
</g>
</svg>
