<?xml version="1.0" encoding="utf-8"?>
<!-- Generator: Adobe Illustrator 22.0.0, SVG Export Plug-In . SVG Version: 6.00 Build 0)  -->
<svg version="1.1" id="Layer_1" xmlns="http://www.w3.org/2000/svg" xmlns:xlink="http://www.w3.org/1999/xlink" x="0px" y="0px"
	 viewBox="0 0 522.2 114.9" style="enable-background:new 0 0 522.2 114.9;" xml:space="preserve">
<style type="text/css">
	.st0{fill:#FFFFFF;}
	.st1{fill:#00C9EA;}
	.st2{fill:#007BBF;}
	.st3{fill:#05A6E5;}
	.st4{fill:#0084CE;}
</style>
<g>
	<g>
		<path class="st0" d="M19.4,15.6v34.8c6.1-10.1,17.6-13.7,24.9-13.7c23,0,37.5,18.8,37.5,40c0,20.8-15.7,40.9-37.5,40.9
			c-9.2,0-18.7-3.3-24.9-12.6v0.8c0,7-4.8,11.8-11.7,11.8c-4.4,0-8.2-3-8.2-7.8c0-4.7,3-6.2,3-6.2c0.8-0.5,1.4-0.9,1.4-2.6V20.4
			c0-1.7-0.6-2.2-1.4-2.6c0,0-3-1.4-3-6.1c0-4.8,3.9-7.9,8.2-7.9C14.6,3.8,19.4,8.6,19.4,15.6z M19.5,77.5
			c0,14.2,10.7,25.2,23.5,25.2c12.6,0,23-11,23-25.2c0-14-10.4-25.3-23-25.3C28.9,52.1,19.5,64.4,19.5,77.5z"/>
		<path class="st0" d="M117.2,109.7c0,4.8-3.7,7.9-8.1,7.9c-6.8,0-11.7-4.8-11.7-11.8V53.4c0-1.7-0.6-2.2-1.4-2.6
			c0,0-2.8-1.4-2.8-6.1c0-4.8,3.7-7.9,8.1-7.9c6.8,0,11.7,4.8,11.7,11.8V101c0,1.7,0.6,2.2,1.4,2.6
			C114.4,103.6,117.2,105,117.2,109.7z M93.6,10.6c0-5.3,4.4-9.6,9.6-9.6c5.4,0,9.8,4.4,9.8,9.6c0,5.4-4.4,9.8-9.8,9.8
			C97.9,20.4,93.6,16,93.6,10.6z"/>
		<path class="st0" d="M152.5,25.2v11.5h16.2c10.7,0,10.7,15.6,0,15.6h-16.2v34.1c0,6.5,1.1,15.9,9.8,15.9c2.5,0,5.3-0.6,7.8-1.4
			c10.1-3.1,13.8,10.7,4.4,14.6c-3.6,1.6-7.8,2.2-12.4,2.2c-18.4,0-25-13.2-25-31.1V52.3h-4c-11.4,0-10.9-15.6,0-15.6h4V30
			c0-1.7-0.6-2.2-1.4-2.6c0,0-2.8-1.4-2.8-6.1c0-4.8,3.7-7.9,8.1-7.9C147.7,13.4,152.5,18.2,152.5,25.2z"/>
		<path class="st0" d="M256.5,72.7c0-13.2-8.2-21.2-21.2-21.2c-11.8,0-21,10.3-21,20.4v33.9c0,7-4.8,11.8-11.7,11.8
			c-4.4,0-8.1-3.1-8.1-7.9c0-4.7,2.8-6.1,2.8-6.1c0.8-0.5,1.4-0.9,1.4-2.6V53.4c0-1.7-0.6-2.2-1.4-2.6c0,0-2.8-1.4-2.8-6.1
			c0-4.8,3.7-7.9,8.1-7.9c6.4,0,10.9,4.2,11.5,10.4c5-6.1,14.8-11.2,22.2-11.2c25,0,35.6,12.1,35.6,37.6V101c0,1.7,0.6,2.2,1.4,2.6
			c0,0,2.8,1.4,2.8,6.1c0,4.8-3.7,7.9-8.1,7.9c-6.8,0-11.7-4.8-11.7-11.8V72.7z"/>
		<path class="st0" d="M347.8,106.4c-3.6,7.2-14.6,11.2-21.5,11.2c-26.4,0-36.7-13.7-36.7-39.2v-25c0-1.7-0.6-2.2-1.4-2.6
			c0,0-2.8-1.4-2.8-6.1c0-4.8,3.7-7.9,8.1-7.9c6.8,0,11.7,4.8,11.7,11.8v29.9c0,15.1,5.8,23.6,22.5,23.6c11.5,0,19.6-7.3,19.6-19.4
			V48.5c0-7,4.8-11.8,11.7-11.8c4.4,0,8.1,3.1,8.1,7.9c0,4.7-2.8,6.1-2.8,6.1c-0.8,0.5-1.4,0.9-1.4,2.6V101c0,1.7,0.6,2.2,1.4,2.6
			c0,0,2.8,1.4,2.8,6.1c0,4.8-3.7,7.9-8.1,7.9C352.2,117.6,347.8,112.9,347.8,106.4z"/>
		<path class="st0" d="M389.7,97.7c1.9,0,3.7,0.9,5,1.7c3.6,2.5,9,3.6,13.7,3.6c4.8,0,14.5-1.1,14.5-8.4c0-7-7.5-9.2-14.2-11.2
			c-11.8-3.6-26.9-9.8-26.9-24.1c0-15.6,15.4-23.3,29.2-23.3c7.2,0,14.5,1.9,20.8,6.7c1.9,1.4,3.1,3.6,3.1,5.9
			c0,4.7-3.3,7.8-7.6,7.8c-1.9,0-3.1-0.5-4.2-1.1c-4.2-2.5-7.8-3.9-13.2-3.9c-4.8,0-12.4,1.6-12.4,8.1c0,5.4,7,8.1,11.4,9.5
			c12.9,4.2,29.9,10.6,29.9,26.1c0,15.6-16.8,23.3-30.9,23.3c-9.5,0-25.3-3.3-25.3-12.9C382.4,101.4,385.6,97.7,389.7,97.7z"/>
		<path class="st0" d="M502.1,108c-1.7,2.3-7.5,10.4-20.7,10.4c-15.7,0-30.5-10.4-30.5-27.5c0-19,15.2-26.4,31.4-26.4
			c6.7,0,13.2,1.6,19.3,4.5c0-15.9-6.8-18.2-15.9-18.2c-10.6,0-15.7,2.2-15.7,2.2c-4.8,1.7-9.8-1.4-9.8-6.4c0-3.7,2.5-6.7,5.6-7.6
			c5.9-1.7,12-3,19.1-3c21.5,0,32.2,10.1,32.2,27.7v37.2c0,1.7,0.6,2.5,1.4,3c0,0,2.6,1.2,2.6,5.9c0,4.7-3.4,7.9-8.1,7.9
			C506.9,117.6,502.3,114,502.1,108z M486.4,76.9c-9.5,0-19.9,2.8-19.9,14.2c0,8.2,7.8,12.3,15.1,12.3c9.2,0,19.6-5.8,20.1-15.6
			v-6.2C496.4,77.8,489.7,76.9,486.4,76.9z"/>
	</g>
</g>
</svg>
